[
    {
        "name": "Fighter",
        "statRequirements": [
            {
                "atrributeId": 0,
                "attributeName": "Strength",
                "attributeMinimum": 12
            },
            {
                "atrributeId": 1,
                "attributeName": "Constitution",
                "attributeMinimum": 12
            },
            {
                "atrributeId": 2,
                "attributeName": "Dexterity",
                "attributeMinimum": 10
            }
        ],
        "favouriteAttributeId": 0
    },
    {
        "name": "Warlord",
        "statRequirements": [
            {
                "atrributeId": 5,
                "attributeName": "Charisma",
                "attributeMinimum": 12
            },
            {
                "atrributeId": 1,
                "attributeName": "Constitution",
                "attributeMinimum": 12
            },
            {
                "atrributeId": 3,
                "attributeName": "Intellect",
                "attributeMinimum": 12
            }
        ],
        "favouriteAttributeId": 3
    },
    {
        "name": "Cleric",
        "statRequirements": [
            {
                "atrributeId": 5,
                "attributeName": "Charisma",
                "attributeMinimum": 12
            },
            {
                "atrributeId": 1,
                "attributeName": "Constitution",
                "attributeMinimum": 10
            },
            {
                "atrributeId": 4,
                "attributeName": "Wisdom",
                "attributeMinimum": 12
            }
        ],
        "favouriteAttributeId": 4
    },
    {
        "name": "Druid",
        "statRequirements": [
            {
                "atrributeId": 1,
                "attributeName": "Constitution",
                "attributeMinimum": 14
            },
            {
                "atrributeId": 4,
                "attributeName": "Wisdom",
                "attributeMinimum": 14
            }
        ],
        "favouriteAttributeId": 4
    },
    
    {
        "name": "Rogue",
        "statRequirements": [
            {
                "atrributeId": 1,
                "attributeName": "Constitution",
                "attributeMinimum": 10
            },
            {
                "atrributeId": 2,
                "attributeName": "Dexterity",
                "attributeMinimum": 14
            },
            {
                "atrributeId": 5,
                "attributeName": "Charisma",
                "attributeMinimum": 12
            }
        ],
        "favouriteAttributeId": 2
    },
    {
        "name": "Mage",
        "statRequirements": [
            {
                "atrributeId": 3,
                "attributeName": "Intellect",
                "attributeMinimum": 14
            },
            {
                "atrributeId": 4,
                "attributeName": "Wisdom",
                "attributeMinimum": 12
            }
        ],
        "favouriteAttributeId": 3
    },
    {
        "name": "Warlock",
        "statRequirements": [
            {
                "atrributeId": 1,
                "attributeName": "Consitution",
                "attributeMinimum": 12
            },
            {
                "atrributeId": 5,
                "attributeName": "Wisdom",
                "attributeMinimum": 12
            }
        ],
        "favouriteAttributeId": 5
    }
]
